Lab 3 Individual Analysis
…
happy

## # A tibble: 90 x 6
##    Party        `Marital status` Happiness count total perecent
##    <chr>        <chr>            <chr>     <int> <int>    <dbl>
##  1 Ind,near dem Divorced         Happy       802  1079    0.743
##  2 Ind,near dem Divorced         Unhappy     277  1079    0.257
##  3 Ind,near dem Married          Happy      3196  3717    0.860
##  4 Ind,near dem Married          Unhappy     521  3717    0.140
##  5 Ind,near dem Never married    Happy      1669  2174    0.768
##  6 Ind,near dem Never married    Unhappy     505  2174    0.232
##  7 Ind,near dem Separated        Happy       193   298    0.648
##  8 Ind,near dem Separated        Unhappy     105   298    0.352
##  9 Ind,near dem Widowed          Happy       377   509    0.741
## 10 Ind,near dem Widowed          Unhappy     132   509    0.259
## # ... with 80 more rows
…
